com\illumoon\annotation\home\service\impl\HomeServiceImpl.class
com\illumoon\common\security\service\UserDetailService.class
com\illumoon\common\page\AdminPagination.class
com\illumoon\common\component\CommonInterface.class
com\illumoon\common\page\InfoNormalPagination.class
com\illumoon\common\security\dto\UserDTO.class
com\illumoon\common\filter\RequestWrapper2.class
com\illumoon\common\security\service\SecuritySession.class
com\illumoon\common\filter\RequestWrapper.class
com\illumoon\common\page\PageAccess.class
com\illumoon\annotation\home\service\impl\HomeManageDAO.class
com\illumoon\annotation\home\service\Home.class
com\illumoon\common\security\service\UserDetail.class
com\illumoon\common\page\UserPagination.class
com\illumoon\common\security\AuthenticationSuccessHandler.class
com\illumoon\annotation\login\web\AdminLoginAction.class
com\illumoon\common\security\dto\WebUserDTO.class
com\illumoon\common\filter\CrossScriptingFilter.class
com\illumoon\annotation\home\service\HomeService.class
com\illumoon\common\page\BoardNormalPagination.class
com\illumoon\annotation\home\web\HomeController.class
com\illumoon\common\component\ACICode.class
com\illumoon\common\security\LoginFailureHandler.class
